ID	pval	padj	odds.ratio	conf.interval	prop.sig	prop.notsig	counts.sig	counts.notsig
DMM_Ssa_0263	0.21661152711895323	0.5789214501049329	4.1984200376290195	0.103_24.966	0.0013774104683195593	3.2806944432129526e-4	1	37
DMM_Ssa_0777	0.20136910757195917	0.5764383262847158	4.568624493908569	0.112_27.334	0.0013774104683195593	3.014692191060551e-4	1	34
DTA_Ssa_0076	NA	NA	NA	"NA"	NA	0.001427545419884555	NA	161
DTA_Ssa_0078	NA	NA	NA	"NA"	NA	1.6846809302985431e-4	NA	19
DTA_Ssa_0082	0.1858296998066006	0.5701593062247974	5.011274667983771	0.123_30.131	0.0013774104683195593	2.748689938908149e-4	1	31
DTA_Ssa_0084	0.21156336618909716	0.5769909986975377	4.315080155278356	0.106_25.691	0.0013774104683195593	3.192027025828819e-4	1	36
DTA_Ssa_0087	0.05524430267762812	0.37925992284740007	5.451252307125274	0.643_20.681	0.0027548209366391185	5.05404279089563e-4	2	57
DTA_Ssa_0090	0.7309667170573754	0.904294873016042	0.4502896405495368	0.011_2.533	0.0013774104683195593	0.003059025899752618	1	345
DTA_Ssa_0091	NA	NA	NA	"NA"	NA	0.0014896126120534487	NA	168
DTA_Ssa_0094	1	1	0.8263083224156246	0.1_3.016	0.0027548209366391185	0.0033338948936434327	2	376
DTA_Ssa_0102	0.7157804058193102	0.904294873016042	0.7658801491833435	0.28_1.68	0.008264462809917356	0.01079082469564909	6	1217
DTA_Ssa_0105	NA	NA	NA	"NA"	NA	0.0016669474468217163	NA	188
DTA_Ssa_0120	NA	NA	NA	"NA"	NA	9.487413660102322e-4	NA	107
DTA_Ssa_0122	NA	NA	NA	"NA"	NA	0.001383211711192488	NA	156
DTA_Ssa_0124	NA	NA	NA	"NA"	NA	9.132743990565786e-4	NA	103
DTA_Ssa_0125	0.2757383172895956	0.6142830779224991	1.9540191831266396	0.234_7.201	0.0027548209366391185	0.0014098119364077282	2	159
DTA_Ssa_0126	NA	NA	NA	"NA"	NA	5.852049547352834e-4	NA	66
DTA_Ssa_0127	0.28856396142197366	0.6232981566714632	2.9872913534303787	0.074_17.44	0.0013774104683195593	4.6107057039749606e-4	1	52
DTA_Ssa_0134	1	1	0.7191949553238758	0.018_4.062	0.0013774104683195593	0.0019152162154972912	1	216
DTA_Ssa_0135	0.3026307438641726	0.6385208359751265	0.4870062246082887	0.1_1.433	0.004132231404958678	0.008485471843661609	3	957
DTA_Ssa_0138	0.09187708939732345	0.5168086278599444	11.096560312655674	0.262_73.137	0.0013774104683195593	1.241343843377874e-4	1	14
DTA_Ssa_0141	0.21156336618909716	0.5769909986975377	4.315080155278356	0.106_25.691	0.0013774104683195593	3.192027025828819e-4	1	36
DTA_Ssa_0144	0.3611581903884269	0.6851362884856422	1.2651722679097444	0.687_2.143	0.01928374655647383	0.01524192904833261	14	1719
DTA_Ssa_0145	NA	NA	NA	"NA"	NA	0.0010196752999175392	NA	115
DTA_Ssa_0147	0.5221951465237238	0.7842292516304179	1.362675400004068	0.034_7.77	0.0013774104683195593	0.001010808558179126	1	114
DTA_Ssa_0152	0.3383719448363765	0.666864416830815	0.4569188688582792	0.055_1.663	0.0027548209366391185	0.006029384382121102	2	680
DTA_Ssa_0153	0.29416426865286227	0.6303520042561335	1.7906634878740841	0.484_4.647	0.005509641873278237	0.003076759383229445	4	347
DTA_Ssa_0154	0.274723375206631	0.6142830779224991	3.1702096725735727	0.079_18.565	0.0013774104683195593	4.344703451822559e-4	1	49
DTA_Ssa_0156	NA	NA	NA	"NA"	NA	7.448063060267243e-4	NA	84
DTA_Ssa_0157	NA	NA	NA	"NA"	NA	4.078701199670157e-4	NA	46
DTA_Ssa_0161	0.3580351712280009	0.6851362884856422	2.2844488769833737	0.057_13.206	0.0013774104683195593	6.029384382121102e-4	1	68
DTA_Ssa_0163	0.5380753309174179	0.7842292516304179	0.35306906540937094	0.009_1.984	0.0013774104683195593	0.0039013663649018894	1	440
DTA_Ssa_0164	NA	NA	NA	"NA"	NA	5.674714712584567e-4	NA	64
DTA_Ssa_0165	NA	NA	NA	"NA"	NA	5.852049547352834e-4	NA	66
DTA_Ssa_0167	0.17745226549088744	0.5701593062247974	2.6554075483411586	0.317_9.845	0.0027548209366391185	0.0010374087833943662	2	117
DTA_Ssa_0168	0.2798400688313607	0.6142830779224991	0.2739872508678042	0.007_1.538	0.0013774104683195593	0.00502744256568039	1	567
DTA_Ssa_0170	NA	NA	NA	"NA"	NA	8.955409155797519e-4	NA	101
DTA_Ssa_0175	0.16218061851655594	0.5699024167597274	2.188089587129944	0.447_6.507	0.004132231404958678	0.001888615990282051	3	213
DTA_Ssa_0176	NA	NA	NA	"NA"	NA	3.192027025828819e-4	NA	36
DTA_Ssa_0179	NA	NA	NA	"NA"	NA	5.408712460432165e-4	NA	61
DTA_Ssa_0180	1	1	0.867854239931239	0.104_3.17	0.0027548209366391185	0.0031742935423519918	2	358
DTA_Ssa_0181	0.26534684125795815	0.6142830779224991	3.3051340786490986	0.082_19.393	0.0013774104683195593	4.167368617054291e-4	1	47
DTA_Ssa_0182	NA	NA	NA	"NA"	NA	0.002048217341573492	NA	231
DTA_Ssa_0184	NA	NA	NA	"NA"	NA	0.0013300112607620078	NA	150
DTA_Ssa_0712	0.025373925329492526	0.2740383935585193	51.798664778434485	0.985_643.756	0.0013774104683195593	2.6600225215240157e-5	1	3
DTA_Ssa_0715	NA	NA	NA	"NA"	NA	0.0021723517259112793	NA	245
DTA_Ssa_0719	NA	NA	NA	"NA"	NA	7.891400147187913e-4	NA	89
DTA_Ssa_0725	0.31104637760953135	0.6460193996505652	2.7252376528824356	0.068_15.861	0.0013774104683195593	5.05404279089563e-4	1	57
DTA_Ssa_0727	NA	NA	NA	"NA"	NA	0.0024826876867557477	NA	280
DTA_Ssa_0728	0.08013302415961505	0.48392578677704323	12.94230462053209	0.302_87.822	0.0013774104683195593	1.0640090086096063e-4	1	12
DTB_Ssa_0261	NA	NA	NA	"NA"	NA	1.7733483476826771e-4	NA	20
DTB_Ssa_0262	1	1	0.526597858799124	0.013_2.966	0.0013774104683195593	0.0026156888128319486	1	295
DTB_Ssa_0770	0.03781809074317694	0.34578984729647966	31.068109706317138	0.656_275.854	0.0013774104683195593	4.433370869206693e-5	1	5
DTC_Ssa_0062	1	1	0.8927923830829804	0.183_2.634	0.004132231404958678	0.004628439187451787	3	522
DTC_Ssa_0064	0.2793666069139946	0.6142830779224991	3.1067932749094305	0.077_18.176	0.0013774104683195593	4.4333708692066926e-4	1	50
DTC_Ssa_0067	NA	NA	NA	"NA"	NA	3.5466966953653543e-4	NA	40
DTD_Ssa_0013	0.10762396203974059	0.5381198101987029	3.65532609598496	0.435_13.665	0.0027548209366391185	7.536730477651377e-4	2	85
DTG_Ssa_0070	0.16107536736276049	0.5699024167597274	0.46788816145902107	0.127_1.206	0.005509641873278237	0.011775033028612976	4	1328
DTH_Ssa_0072	0.4905179576070051	0.7655482575369444	1.4936612580717856	0.037_8.533	0.0013774104683195593	9.221411407949921e-4	1	104
DTH_Ssa_0710	NA	NA	NA	"NA"	NA	2.748689938908149e-4	NA	31
DTK_Ssa_0734	0.2266109579506815	0.582713891873181	3.9831221243268007	0.098_23.609	0.0013774104683195593	3.45802927798122e-4	1	39
DTS_Ssa_0264	9.859826475642837e-8	6.6553828710589154e-6	2.9027956870622225	2_4.089	0.048209366391184574	0.016607407276048272	35	1873
DTT_Ssa_0189	0.025373925329492526	0.2740383935585193	51.798664778434485	0.985_643.756	0.0013774104683195593	2.6600225215240157e-5	1	3
DTT_Ssa_0201	0.6279951456977824	0.8311700457764767	1.0153346600787756	0.026_5.76	0.0013774104683195593	0.001356611485977248	1	153
DTT_Ssa_0202	NA	NA	NA	"NA"	NA	0.0016403472216064763	NA	185
DTT_Ssa_0204	1	1	0.5567968746028068	0.014_3.137	0.0013774104683195593	0.0024738209450173346	1	279
DTT_Ssa_0208	NA	NA	NA	"NA"	NA	0.0026777560050008425	NA	302
DTT_Ssa_0214	NA	NA	NA	"NA"	NA	4.6993731213590943e-4	NA	53
DTT_Ssa_0215	NA	NA	NA	"NA"	NA	4.433370869206693e-5	NA	5
DTT_Ssa_0216	NA	NA	NA	"NA"	NA	9.753415912254723e-4	NA	110
DTT_Ssa_0217	1	1	0.9066878759709133	0.186_2.675	0.004132231404958678	0.0045575052535444804	3	514
DTT_Ssa_0225	NA	NA	NA	"NA"	NA	4.4333708692066926e-4	NA	50
DTT_Ssa_0229	NA	NA	NA	"NA"	NA	4.433370869206693e-5	NA	5
DTT_Ssa_0236	7.278112861377026e-4	0.020688306309299166	2.7093820855361397	1.502_4.524	0.02066115702479339	0.007625397895035511	15	860
DTT_Ssa_0243	NA	NA	NA	"NA"	NA	8.246069816724448e-4	NA	93
DTT_Ssa_0255	0.34554789028066446	0.6712081321998518	2.390052182143392	0.06_13.837	0.0013774104683195593	5.763382129968701e-4	1	65
DTT_Ssa_0256	0.2793666069139946	0.6142830779224991	3.1067932749094305	0.077_18.176	0.0013774104683195593	4.4333708692066926e-4	1	50
DTT_Ssa_0266	NA	NA	NA	"NA"	NA	2.394020269371614e-4	NA	27
DTT_Ssa_0271	0.7901486978497919	0.9516440067673699	1.0844316903156455	0.294_2.804	0.005509641873278237	0.00508064301611087	4	573
DTT_Ssa_0272	NA	NA	NA	"NA"	NA	6.384054051657638e-4	NA	72
DTT_Ssa_0276	NA	NA	NA	"NA"	NA	0.0017201478972521968	NA	194
DTT_Ssa_0740	NA	NA	NA	"NA"	NA	3.7240315301336217e-4	NA	42
DTT_Ssa_0743	NA	NA	NA	"NA"	NA	7.35939564288311e-4	NA	83
DTT_Ssa_0746	NA	NA	NA	"NA"	NA	3.45802927798122e-4	NA	39
DTT_Ssa_0750	0.9999999999999999	1	0.8801466992853625	0.106_3.215	0.0027548209366391185	0.003129959833659925	2	353
DTT_Ssa_0754	NA	NA	NA	"NA"	NA	8.866741738413386e-5	NA	10
DTT_Ssa_0758	NA	NA	NA	"NA"	NA	0.0011704099094705669	NA	132
DTT_Ssa_0787	NA	NA	NA	"NA"	NA	5.320045043048031e-4	NA	60
DTT_Ssa_0789	NA	NA	NA	"NA"	NA	0.0012768108103315275	NA	144
DTT_Ssa_0790	NA	NA	NA	"NA"	NA	1.0640090086096063e-4	NA	12
DTX_Ssa_0015	0.38034154780596346	0.6851362884856422	0.341429545144221	0.009_1.918	0.0013774104683195593	0.00403436749097809	1	455
DTX_Ssa_0018	0.5904069107827086	0.8133156424047516	1.1256912456149328	0.028_6.398	0.0013774104683195593	0.001223610359901047	1	138
DTX_Ssa_0019	NA	NA	NA	"NA"	NA	2.6600225215240154e-4	NA	30
DTX_Ssa_0020	1	1	0.5862124101287253	0.015_3.305	0.0013774104683195593	0.002349686560679547	1	265
DTX_Ssa_0021	0.4479297391432818	0.7374453022480859	1.5638472568234172	0.32_4.633	0.004132231404958678	0.0026422890380471886	3	298
DTX_Ssa_0022	0.8091843685715338	0.9667246881164342	1.1127897223100713	0.359_2.621	0.006887052341597796	0.006188985733412543	5	698
DTX_Ssa_0023	0.05524430267762812	0.37925992284740007	5.451252307125274	0.643_20.681	0.0027548209366391185	5.05404279089563e-4	2	57
DTX_Ssa_0026	NA	NA	NA	"NA"	NA	5.763382129968701e-4	NA	65
DTX_Ssa_0035	1	1	0.8397078263623506	0.021_4.752	0.0013774104683195593	0.0016403472216064763	1	185
DTX_Ssa_0039	3.361881489886402e-5	0.0011346350028366608	6.941267594955101	2.941_14.05	0.011019283746556474	0.0015871467711759959	8	179
DTX_Ssa_0050	0.37831937461627685	0.6851362884856422	2.1280267836611784	0.053_12.274	0.0013774104683195593	6.472721469041771e-4	1	73
DTX_Ssa_0629	0.7334836192241229	0.904294873016042	0.43393856577248374	0.011_2.441	0.0013774104683195593	0.0031742935423519918	1	358
DTX_Ssa_0630	NA	NA	NA	"NA"	NA	0.003768365238825689	NA	425
DTX_Ssa_0631	NA	NA	NA	"NA"	NA	0.001471879128576622	NA	166
DTX_Ssa_0633	NA	NA	NA	"NA"	NA	0.0020570840833119054	NA	232
DTX_Ssa_0635	0.9999999999999999	1	0.9957773723994492	0.025_5.648	0.0013774104683195593	0.001383211711192488	1	156
DTX_Ssa_0636	NA	NA	NA	"NA"	NA	4.344703451822559e-4	NA	49
DTX_Ssa_0637	0.3328173703930973	0.6656347407861946	2.5054356575450734	0.062_14.532	0.0013774104683195593	5.497379877816298e-4	1	62
DTX_Ssa_0640	1	1	0.5212965618142121	0.013_2.936	0.0013774104683195593	0.0026422890380471886	1	298
DTX_Ssa_0641	1	1	0.9192061545673251	0.023_5.207	0.0013774104683195593	0.0014984793537918622	1	169
DTX_Ssa_0649	NA	NA	NA	"NA"	NA	1.5073460955302754e-4	NA	17
DTX_Ssa_0653	0.2793666069139946	0.6142830779224991	3.1067932749094305	0.077_18.176	0.0013774104683195593	4.4333708692066926e-4	1	50
DTX_Ssa_0656	0.7053249715650391	0.904294873016042	1.0978480116372002	0.132_4.017	0.0027548209366391185	0.002509287911970988	2	283
DTX_Ssa_0657	0.7816641091357631	0.946409459491731	0.5774955074468211	0.07_2.104	0.0027548209366391185	0.004770307055266401	2	538
DTX_Ssa_0659	NA	NA	NA	"NA"	NA	5.586047295200433e-4	NA	63
DTX_Ssa_0660	NA	NA	NA	"NA"	NA	4.788040538743228e-4	NA	54
DTX_Ssa_0662	0.9999999999999999	1	0.8876907594377785	0.022_5.027	0.0013774104683195593	0.0015516798042223424	1	175
DTX_Ssa_0663	NA	NA	NA	"NA"	NA	0.001197010134685807	NA	135
DTX_Ssa_0664	1	1	0.9628870605964169	0.438_1.843	0.012396694214876033	0.012874509004176235	9	1452
DTX_Ssa_0667	NA	NA	NA	"NA"	NA	0.001932949698974118	NA	218
DTX_Ssa_0668	0.38629314891811983	0.6861786197887655	0.3144748384467208	0.008_1.766	0.0013774104683195593	0.0043801704187762126	1	494
DTX_Ssa_0669	0.7269868683540759	0.904294873016042	1.0087395050189718	0.121_3.688	0.0027548209366391185	0.0027309564554313225	2	308
DTX_Ssa_0670	0.5310083150994747	0.7842292516304179	0.37433804762901374	0.009_2.104	0.0013774104683195593	0.003679697821441555	1	415
DTX_Ssa_0676	0.5968756683407174	0.8180529464568207	0.7158805414017353	0.261_1.57	0.008264462809917356	0.011544497743414227	6	1302
DTX_Ssa_0678	0.025373925329492526	0.2740383935585193	51.798664778434485	0.985_643.756	0.0013774104683195593	2.6600225215240157e-5	1	3
DTX_Ssa_0680	0.2558489165395101	0.6142830779224991	3.4520427038084978	0.085_20.299	0.0013774104683195593	3.9900337822860234e-4	1	45
DTX_Ssa_0681	0.7313075181272477	0.904294873016042	0.44769434836143396	0.011_2.519	0.0013774104683195593	0.003076759383229445	1	347
DTX_Ssa_0684	0.20682991546464277	0.5769909986975377	1.9337519783735853	0.395_5.742	0.004132231404958678	0.002136884758957626	3	241
DTX_Ssa_0685	1	1	0.776730164495096	0.02_4.391	0.0013774104683195593	0.001773348347682677	1	200
DTX_Ssa_0686	1	1	0.6419265044484254	0.016_3.622	0.0013774104683195593	0.0021457515006960393	1	242
DTX_Ssa_0690	0.1962225875276814	0.5764383262847158	4.707213997489455	0.116_28.205	0.0013774104683195593	2.926024773676417e-4	1	33
DTX_Ssa_0692	0.31104637760953135	0.6460193996505652	2.7252376528824356	0.068_15.861	0.0013774104683195593	5.05404279089563e-4	1	57
DTX_Ssa_0693	NA	NA	NA	"NA"	NA	7.891400147187913e-4	NA	89
DTX_Ssa_0696	1	1	0.9915685628321733	0.203_2.927	0.004132231404958678	0.004167368617054291	3	470
DTX_Ssa_0698	NA	NA	NA	"NA"	NA	1.1526764259937401e-4	NA	13
DYC_Ssa_0006	NA	NA	NA	"NA"	NA	2.6600225215240154e-4	NA	30
DYC_Ssa_0007	NA	NA	NA	"NA"	NA	8.157402399340314e-4	NA	92
DYC_Ssa_0009	NA	NA	NA	"NA"	NA	9.930750747022992e-4	NA	112
RIC_Ssa_0285	NA	NA	NA	"NA"	NA	3.5466966953653543e-4	NA	40
RIC_Ssa_0288	NA	NA	NA	"NA"	NA	3.546696695365354e-5	NA	4
RIC_Ssa_0294	0.826197295848011	0.9827016294227443	0.737110665966013	0.2_1.902	0.005509641873278237	0.0074746632854824835	4	843
RIC_Ssa_0296	0.3666533773099349	0.6851362884856422	1.5691135605737	0.188_5.764	0.0027548209366391185	0.0017556148642058503	2	198
RIC_Ssa_0297	0.46366848997769206	0.7472819535985218	1.6181578793710272	0.04_9.262	0.0013774104683195593	8.51207206887685e-4	1	96
RIC_Ssa_0298	1	1	0.8307270519084103	0.1_3.033	0.0027548209366391185	0.003316161410166606	2	374
RIC_Ssa_0303	0.0038978494022044916	0.08095533373809329	10.129713231149081	2.011_31.624	0.004132231404958678	4.078701199670157e-4	3	46
RIC_Ssa_0800	0.025373925329492526	0.2740383935585193	51.798664778434485	0.985_643.756	0.0013774104683195593	2.6600225215240157e-5	1	3
RIC_Ssa_0805	0.571586591984325	0.7996289110661543	1.185841158463208	0.03_6.744	0.0013774104683195593	0.0011615431677321534	1	131
RIJ_Ssa_0332	0.7801039308473777	0.946409459491731	0.5873205249661028	0.071_2.14	0.0027548209366391185	0.004690506379620681	2	529
RIJ_Ssa_0333	0.41698278892637847	0.7036584563132636	1.8716511132977076	0.047_10.75	0.0013774104683195593	7.35939564288311e-4	1	83
RIJ_Ssa_0336	0.126216098838946	0.5699024167597274	7.766947372984176	0.187_48.707	0.0013774104683195593	1.7733483476826771e-4	1	20
RIJ_Ssa_0371	0.3580351712280009	0.6851362884856422	2.2844488769833737	0.057_13.206	0.0013774104683195593	6.029384382121102e-4	1	68
RIJ_Ssa_0381	NA	NA	NA	"NA"	NA	0.0012058768764242203	NA	136
RIJ_Ssa_0796	NA	NA	NA	"NA"	NA	8.866741738413386e-5	NA	10
RIJ_Ssa_0840	0.5770504943200658	0.8031115127134937	1.168009364632199	0.029_6.641	0.0013774104683195593	0.0011792766512089803	1	133
RIJ_Ssa_0874	0.2700501845106745	0.6142830779224991	3.2362672846080276	0.08_18.97	0.0013774104683195593	4.256036034438425e-4	1	48
RIL_Ssa_0319	0.3743145381492135	0.6851362884856422	2.1576217072880453	0.054_12.45	0.0013774104683195593	6.384054051657638e-4	1	72
RIL_Ssa_0320	0.1483833646532294	0.5699024167597274	6.4723481396018245	0.157_39.807	0.0013774104683195593	2.1280180172192126e-4	1	24
RIL_Ssa_0331	NA	NA	NA	"NA"	NA	1.0640090086096063e-4	NA	12
RIL_Ssa_0394	0.3285189932520764	0.6619412550601539	2.546611853057115	0.063_14.779	0.0013774104683195593	5.408712460432165e-4	1	61
RIL_Ssa_0396	NA	NA	NA	"NA"	NA	4.788040538743228e-4	NA	54
RIL_Ssa_0834	NA	NA	NA	"NA"	NA	1.6846809302985431e-4	NA	19
RIL_Ssa_0835	0.04398038128028875	0.3598394832023625	25.865700129349555	0.562_213.099	0.0013774104683195593	5.3200450430480314e-5	1	6
RIN_Ssa_0342	0.14013625235457022	0.5699024167597274	0.33883091716398894	0.041_1.232	0.0027548209366391185	0.008130802174125075	2	917
RIN_Ssa_0343	0.051406962192335	0.37917886539746226	0.1753402282235057	0.004_0.983	0.0013774104683195593	0.007855933180234259	1	886
RIN_Ssa_0344	0.7324325448435959	0.904294873016042	0.44008491911369557	0.011_2.476	0.0013774104683195593	0.003129959833659925	1	353
RIN_Ssa_0345	0.7300507751643429	0.904294873016042	0.4582592511429804	0.012_2.578	0.0013774104683195593	0.0030058254493221374	1	339
RIN_Ssa_0346	NA	NA	NA	"NA"	NA	0.0012768108103315275	NA	144
RIN_Ssa_0347	1	1	0.8630328684139508	0.022_4.885	0.0013774104683195593	0.0015960135129144094	1	180
RIN_Ssa_0844	1	1	0.552833926368453	0.014_3.115	0.0013774104683195593	0.002491554428494161	1	281
RIN_Ssa_0845	0.40415067460434523	0.6994915521998283	0.6388464034022995	0.233_1.401	0.008264462809917356	0.01293657619634513	6	1459
RIN_Ssa_0846	NA	NA	NA	"NA"	NA	0.0017556148642058503	NA	198
RIN_Ssa_0847	0.4705108596731434	0.7472819535985218	1.585128019277285	0.04_9.068	0.0013774104683195593	8.689406903645118e-4	1	98
RIN_Ssa_0850	NA	NA	NA	"NA"	NA	2.2166854346033463e-4	NA	25
RIP_Ssa_0350	0.5660520055028212	0.7996289110661543	1.204225916623088	0.03_6.851	0.0013774104683195593	0.0011438096842553266	1	129
RIP_Ssa_0351	0.19354428648823943	0.5764383262847158	2.5054326565727374	0.3_9.277	0.0027548209366391185	0.0010994759755632597	2	124
RIP_Ssa_0352	NA	NA	NA	"NA"	NA	4.6993731213590943e-4	NA	53
RIP_Ssa_0353	0.1149167169721334	0.5540627425442146	8.629604740630937	0.207_54.791	0.0013774104683195593	1.5960135129144094e-4	1	18
RIR_Ssa_0357	0.03970179728218841	0.34578984729647966	2.265421311854455	0.903_4.728	0.009641873278236915	0.004256036034438425	7	480
RIR_Ssa_0358	0.5191182686418226	0.7842292516304179	1.374734474390022	0.034_7.84	0.0013774104683195593	0.0010019418164407125	1	113
RIR_Ssa_0359	0.0026818611555195137	0.06034187599918906	7.310709443991512	1.942_19.485	0.005509641873278237	7.536730477651377e-4	4	85
RIR_Ssa_0363	1	1	0.7504640845610833	0.09_2.738	0.0027548209366391185	0.0036708310797031415	2	414
RIR_Ssa_0364	NA	NA	NA	"NA"	NA	0.001932949698974118	NA	218
RIR_Ssa_0365	0.16040465827866265	0.5699024167597274	0.4707239318329307	0.128_1.213	0.005509641873278237	0.011704099094705668	4	1320
RIR_Ssa_0366	NA	NA	NA	"NA"	NA	7.714065312419646e-4	NA	87
RIR_Ssa_0368	NA	NA	NA	"NA"	NA	0.002739823197169736	NA	309
RIR_Ssa_0373	1	1	0.7885584616803715	0.02_4.458	0.0013774104683195593	0.0017467481224674368	1	197
RIR_Ssa_0374	0.6099736360802159	0.8234644087082915	1.2387965470934685	0.4_2.92	0.006887052341597796	0.0055594470699851925	5	627
RIR_Ssa_0376	0.3413512031588879	0.6678610496586938	1.6614309098079807	0.199_6.108	0.0027548209366391185	0.001658080705083303	2	187
RIR_Ssa_0380	0.30270617409191186	0.6385208359751265	1.7260483432421891	0.467_4.477	0.005509641873278237	0.0031920270258288187	4	360
RIR_Ssa_0858	0.2187036589285302	0.5789214501049329	1.7533236087038249	0.565_4.141	0.006887052341597796	0.003927966590117129	5	443
RIR_Ssa_0859	NA	NA	NA	"NA"	NA	8.866741738413386e-5	NA	10
RIR_Ssa_0863	0.5688281912153419	0.7996289110661543	1.194962821256911	0.03_6.797	0.0013774104683195593	0.0011526764259937401	1	130
RIR_Ssa_0867	0.7480607127690267	0.9180745111256238	1.1564165413671723	0.237_3.418	0.004132231404958678	0.003573296920580594	3	403
RIR_Ssa_0869	NA	NA	NA	"NA"	NA	8.866741738413386e-5	NA	10
RIR_Ssa_0872	NA	NA	NA	"NA"	NA	0.0023851535276332007	NA	269
RIR_Ssa_0879	0.3940836740365599	0.6909259220121505	2.0174495592893558	0.05_11.619	0.0013774104683195593	6.827391138578306e-4	1	77
RIT_Ssa_0383	0.49701733297776496	0.7668267423085516	1.4654803774302971	0.037_8.369	0.0013774104683195593	9.398746242718189e-4	1	106
RLB_Ssa_0404	1	1	0.6798518972751264	0.082_2.479	0.0027548209366391185	0.004052100974454917	2	457
RLB_Ssa_0408	0.48393448244791637	0.7596645945403337	1.5229523985533604	0.038_8.703	0.0013774104683195593	9.044076573181653e-4	1	102
RLB_Ssa_0409	NA	NA	NA	"NA"	NA	5.3200450430480314e-5	NA	6
RLC_Ssa_0411	0.008712563891700614	0.15682615005061104	15.533654764331908	1.757_64.119	0.0027548209366391185	1.7733483476826771e-4	2	20
RLC_Ssa_0412	NA	NA	NA	"NA"	NA	8.334737234108582e-4	NA	94
RLC_Ssa_0897	NA	NA	NA	"NA"	NA	2.0393505998350786e-4	NA	23
RLE_Ssa_0422	NA	NA	NA	"NA"	NA	0.002092551050265559	NA	236
RLE_Ssa_0425	0.5402468177898434	0.7842292516304179	1.2945417667232628	0.032_7.374	0.0013774104683195593	0.0010640090086096062	1	120
RLE_Ssa_0429	0.03348178142149055	0.32286003513580175	4.396603945033132	0.89_13.248	0.004132231404958678	9.398746242718189e-4	3	106
RLE_Ssa_0904	0.10347101297329828	0.5313227358554838	9.707976653154185	0.231_62.763	0.0013774104683195593	1.4186786781461417e-4	1	16
RLG_Ssa_0432	NA	NA	NA	"NA"	NA	6.384054051657638e-4	NA	72
RLG_Ssa_0439	0.7182837443654038	0.904294873016042	1.0426098816242324	0.125_3.813	0.0027548209366391185	0.0026422890380471886	2	298
RLG_Ssa_0440	0.5688281912153419	0.7996289110661543	1.194962821256911	0.03_6.797	0.0013774104683195593	0.0011526764259937401	1	130
RLG_Ssa_0442	0.4132273530703878	0.7017068259685831	1.8944611253121604	0.047_10.884	0.0013774104683195593	7.270728225498976e-4	1	82
RLG_Ssa_0449	0.5372863430069205	0.7842292516304179	1.305420220958656	0.033_7.437	0.0013774104683195593	0.001055142266871193	1	119
RLG_Ssa_0451	0.05196154822113372	0.37917886539746226	5.648624784319679	0.666_21.469	0.0027548209366391185	4.8767079561273617e-4	2	55
RLG_Ssa_0452	NA	NA	NA	"NA"	NA	4.965375373511496e-4	NA	56
RLG_Ssa_0453	NA	NA	NA	"NA"	NA	1.4186786781461417e-4	NA	16
RLG_Ssa_0456	NA	NA	NA	"NA"	NA	0.001383211711192488	NA	156
RLG_Ssa_0462	0.022395828216723635	0.2740383935585193	9.137810289917983	1.062_35.737	0.0027548209366391185	3.014692191060551e-4	2	34
RLG_Ssa_0468	NA	NA	NA	"NA"	NA	8.157402399340314e-4	NA	92
RLG_Ssa_0475	NA	NA	NA	"NA"	NA	0.0013743449694540747	NA	155
RLG_Ssa_0479	NA	NA	NA	"NA"	NA	0.0032363607345208857	NA	365
RLG_Ssa_0913	0.5395122454240097	0.7842292516304179	0.34988829637509833	0.009_1.966	0.0013774104683195593	0.003936833331855543	1	444
RLG_Ssa_0919	NA	NA	NA	"NA"	NA	1.5073460955302754e-4	NA	17
RLG_Ssa_0928	NA	NA	NA	"NA"	NA	0.002943758257153244	NA	332
RLG_Ssa_0935	NA	NA	NA	"NA"	NA	1.5073460955302754e-4	NA	17
RLG_Ssa_0938	0.13506566794424585	0.5699024167597274	3.1702103044883745	0.378_11.803	0.0027548209366391185	8.689406903645118e-4	2	98
RLG_Ssa_0940	0.1373710316956609	0.5699024167597274	7.062210930568413	0.171_43.799	0.0013774104683195593	1.9506831824509449e-4	1	22
RLG_Ssa_0956	0.1858296998066006	0.5701593062247974	5.011274667983771	0.123_30.131	0.0013774104683195593	2.748689938908149e-4	1	31
RLG_Ssa_0958	0.7304885260414359	0.904294873016042	0.4542394920725634	0.011_2.556	0.0013774104683195593	0.003032425674537378	1	342
RLX_Ssa_0515	NA	NA	NA	"NA"	NA	1.0640090086096063e-4	NA	12
RLX_Ssa_0517	NA	NA	NA	"NA"	NA	1.773348347682677e-5	NA	2
RLX_Ssa_0520	NA	NA	NA	"NA"	NA	8.866741738413386e-5	NA	10
RLX_Ssa_0552	0.5688281912153419	0.7996289110661543	1.194962821256911	0.03_6.797	0.0013774104683195593	0.0011526764259937401	1	130
RLX_Ssa_0561	NA	NA	NA	"NA"	NA	2.6600225215240154e-4	NA	30
RLX_Ssa_0569	NA	NA	NA	"NA"	NA	5.3200450430480314e-5	NA	6
RLX_Ssa_0571	NA	NA	NA	"NA"	NA	2.3053528519874803e-4	NA	26
RLX_Ssa_0572	NA	NA	NA	"NA"	NA	8.866741738413386e-6	NA	1
RLX_Ssa_0573	NA	NA	NA	"NA"	NA	5.3200450430480314e-5	NA	6
RLX_Ssa_0583	NA	NA	NA	"NA"	NA	7.093393390730709e-5	NA	8
RLX_Ssa_0585	NA	NA	NA	"NA"	NA	1.773348347682677e-5	NA	2
RLX_Ssa_0589	NA	NA	NA	"NA"	NA	6.20671921688937e-5	NA	7
RLX_Ssa_0601	NA	NA	NA	"NA"	NA	4.078701199670157e-4	NA	46
RLX_Ssa_0602	NA	NA	NA	"NA"	NA	1.5073460955302754e-4	NA	17
RLX_Ssa_0603	NA	NA	NA	"NA"	NA	1.241343843377874e-4	NA	14
RLX_Ssa_0607	NA	NA	NA	"NA"	NA	2.394020269371614e-4	NA	27
RLX_Ssa_0612	NA	NA	NA	"NA"	NA	2.3053528519874803e-4	NA	26
RLX_Ssa_0614	NA	NA	NA	"NA"	NA	2.6600225215240157e-5	NA	3
RLX_Ssa_0616	NA	NA	NA	"NA"	NA	3.9900337822860234e-4	NA	45
RSD_Ssa_0480	0.7269868683540759	0.904294873016042	1.0087395050189718	0.121_3.688	0.0027548209366391185	0.0027309564554313225	2	308
RST_Ssa_0481	0.04188286838874437	0.3533867020300306	2.6968636240152675	0.866_6.395	0.006887052341597796	0.002553621620663055	5	288
RST_Ssa_0482	1	1	0.8307270589223656	0.021_4.7	0.0013774104683195593	0.001658080705083303	1	187
RST_Ssa_0483	0.20136910757195917	0.5764383262847158	4.568624493908569	0.112_27.334	0.0013774104683195593	3.014692191060551e-4	1	34
RST_Ssa_0484	NA	NA	NA	"NA"	NA	3.192027025828819e-4	NA	36
RST_Ssa_0485	1	1	0.7158807133895916	0.018_4.043	0.0013774104683195593	0.0019240829572357047	1	217
RST_Ssa_0489	0.26061315062792423	0.6142830779224991	3.3769928064820007	0.084_19.836	0.0013774104683195593	4.078701199670157e-4	1	46
RST_Ssa_0490	0.6279951456977824	0.8311700457764767	1.0153346600787756	0.026_5.76	0.0013774104683195593	0.001356611485977248	1	153
RST_Ssa_0495	0.26127680431751327	0.6142830779224991	1.562798803790778	0.504_3.688	0.006887052341597796	0.004406770643991452	5	497
RST_Ssa_0498	0.19546890637725498	0.5764383262847158	0.26330648799993556	0.007_1.477	0.0013774104683195593	0.005231377625663897	1	590
RYD_Ssa_0414	NA	NA	NA	"NA"	NA	9.310078825334055e-4	NA	105
RYD_Ssa_0415	NA	NA	NA	"NA"	NA	8.866741738413385e-4	NA	100
RYD_Ssa_0416	0.4094476935334464	0.7017068259685831	1.9178401127111884	0.048_11.022	0.0013774104683195593	7.182060808114842e-4	1	81
XXX_Ssa_0966	NA	NA	NA	"NA"	NA	2.3053528519874803e-4	NA	26
XXX_Ssa_0972	3.050246004393653e-9	4.1178321059314313e-7	2.2456729278543066	1.74_2.861	0.10192837465564739	0.04538885095893812	74	5119
XXX_Ssa_0978	NA	NA	NA	"NA"	NA	6.384054051657638e-4	NA	72
XXX_Ssa_1108	0.3702838670038694	0.6851362884856422	2.1880914128934714	0.055_12.631	0.0013774104683195593	6.295386634273504e-4	1	71
XXX_Ssa_1119	NA	NA	NA	"NA"	NA	1.773348347682677e-5	NA	2
XXX_Ssa_1131	0.1592549231198345	0.5699024167597274	5.9744608443048115	0.146_36.433	0.0013774104683195593	2.3053528519874803e-4	1	26
XXX_Ssa_1135	0.16463847595281014	0.5699024167597274	5.75321175091438	0.14_35.033	0.0013774104683195593	2.394020269371614e-4	1	27
XXX_Ssa_1137	1.952511595717638e-7	1.0543562616875245e-5	2.8657628256601293	1.963_4.056	0.046831955922865015	0.016341405023895868	34	1843
XXX_Ssa_1145	NA	NA	NA	"NA"	NA	0.0012856775520699408	NA	145
XXX_Ssa_1148	0.4671006717283739	0.7472819535985218	1.6014728046864257	0.04_9.164	0.0013774104683195593	8.600739486260984e-4	1	97
XXX_Ssa_1150	0.33671454499671466	0.666864416830815	1.6793944304321067	0.201_6.175	0.0027548209366391185	0.0016403472216064763	2	185
XXX_Ssa_1153	0.26061315062792423	0.6142830779224991	3.3769928064820007	0.084_19.836	0.0013774104683195593	4.078701199670157e-4	1	46
XXX_Ssa_1154	0.01586019073723282	0.22538165784488745	11.096554536897422	1.278_44.13	0.0027548209366391185	2.482687686755748e-4	2	28
XXX_Ssa_1159	0.2535182540741073	0.6142830779224991	0.4040391956334239	0.049_1.47	0.0027548209366391185	0.006818524396839893	2	769
XXX_Ssa_1161	NA	NA	NA	"NA"	NA	0.0010285420416559527	NA	116
XXX_Ssa_1165	0.6256004060349907	0.8311700457764767	1.022017614199161	0.026_5.799	0.0013774104683195593	0.0013477447442388345	1	152
XXX_Ssa_1166	NA	NA	NA	"NA"	NA	1.773348347682677e-5	NA	2
XXX_Ssa_1171	NA	NA	NA	"NA"	NA	1.773348347682677e-5	NA	2
XXX_Ssa_1174	0.7788673738694365	0.946409459491731	0.5963388376913796	0.072_2.173	0.0027548209366391185	0.004619572445713374	2	521
XXX_Ssa_1175	0.9999999999999999	1	0.658246577091399	0.017_3.715	0.0013774104683195593	0.002092551050265559	1	236
XXX_Ssa_1177	NA	NA	NA	"NA"	NA	3.635364112749488e-4	NA	41
XXX_Ssa_1180	NA	NA	NA	"NA"	NA	0.0014896126120534487	NA	168
XXX_Ssa_1181	0.08339976811604811	0.48952037807245635	0.6168006041856182	0.335_1.043	0.01928374655647383	0.0312641313696456	14	3526
XXX_Ssa_1184	NA	NA	NA	"NA"	NA	0.0012147436181626338	NA	137
XXX_Ssa_1185	0.42400029180952864	0.711056389991135	0.6961732124773945	0.278_1.445	0.009641873278236915	0.013849850595401707	7	1562
XXX_Ssa_1186	NA	NA	NA	"NA"	NA	0.003475762761458047	NA	392
XXX_Ssa_1187	NA	NA	NA	"NA"	NA	2.482687686755748e-4	NA	28
XXX_Ssa_1188	0.1805829015205972	0.5701593062247974	5.178780948678941	0.127_31.22	0.0013774104683195593	2.6600225215240154e-4	1	30
XXX_Ssa_1193	0.26061315062792423	0.6142830779224991	3.3769928064820007	0.084_19.836	0.0013774104683195593	4.078701199670157e-4	1	46
XXX_Ssa_1194	NA	NA	NA	"NA"	NA	1.5073460955302754e-4	NA	17
XXX_Ssa_1206	NA	NA	NA	"NA"	NA	0.001888615990282051	NA	213
XXX_Ssa_1213	0.21156336618909716	0.5769909986975377	4.315080155278356	0.106_25.691	0.0013774104683195593	3.192027025828819e-4	1	36
XXX_Ssa_1235	0.3743145381492135	0.6851362884856422	2.1576217072880453	0.054_12.45	0.0013774104683195593	6.384054051657638e-4	1	72
XXX_Ssa_1239	0.16463847595281014	0.5699024167597274	5.75321175091438	0.14_35.033	0.0013774104683195593	2.394020269371614e-4	1	27
XXX_Ssa_1246	1	1	0.8385745993088937	0.227_2.166	0.005509641873278237	0.006570255628164319	4	741
XXX_Ssa_1250	0.49701733297776496	0.7668267423085516	1.4654803774302971	0.037_8.369	0.0013774104683195593	9.398746242718189e-4	1	106
XXX_Ssa_1254	0.3198388668946096	0.6542158641026106	2.632919753136373	0.065_15.301	0.0013774104683195593	5.231377625663897e-4	1	59
XXX_Ssa_1256	0.012960942125031226	0.20585025727990772	12.426319641961657	1.424_50.035	0.0027548209366391185	2.2166854346033463e-4	2	25
XXX_Ssa_1258	0.3845438082599329	0.6861786197887655	0.3189949664066404	0.008_1.791	0.0013774104683195593	0.004318103226607318	1	487
XXX_Ssa_1263	0.5290373044888574	0.7842292516304179	0.3845303023411128	0.01_2.161	0.0013774104683195593	0.0035821636623190076	1	404
XXX_Ssa_1270	NA	NA	NA	"NA"	NA	0.003608763887534248	NA	407
XXX_Ssa_1271	0.10347101297329828	0.5313227358554838	9.707976653154185	0.231_62.763	0.0013774104683195593	1.4186786781461417e-4	1	16
XXX_Ssa_1287	NA	NA	NA	"NA"	NA	3.1033596084446846e-4	NA	35
XXX_Ssa_1289	NA	NA	NA	"NA"	NA	2.482687686755748e-4	NA	28
XXX_Ssa_1297	NA	NA	NA	"NA"	NA	4.965375373511496e-4	NA	56
XXX_Ssa_1301	NA	NA	NA	"NA"	NA	0.0023585533024179607	NA	266
XXX_Ssa_1304	0.2793666069139946	0.6142830779224991	3.1067932749094305	0.077_18.176	0.0013774104683195593	4.4333708692066926e-4	1	50
XXX_Ssa_1305	NA	NA	NA	"NA"	NA	5.320045043048031e-4	NA	60
XXX_Ssa_1314	NA	NA	NA	"NA"	NA	4.078701199670157e-4	NA	46
XXX_Ssa_1327	0.2266109579506815	0.582713891873181	3.9831221243268007	0.098_23.609	0.0013774104683195593	3.45802927798122e-4	1	39
XXX_Ssa_1330	NA	NA	NA	"NA"	NA	2.6600225215240157e-5	NA	3
XXX_Ssa_1331	0.06223114462276095	0.409814854832816	17.25138739282051	0.393_124.654	0.0013774104683195593	7.980067564572047e-5	1	9
XXX_Ssa_1332	NA	NA	NA	"NA"	NA	5.940716964736968e-4	NA	67
XXX_Ssa_1335	0.03959548268815382	0.34578984729647966	3.2028998405016806	0.862_8.369	0.005509641873278237	0.0017201478972521968	4	194
XXX_Ssa_1341	NA	NA	NA	"NA"	NA	3.9013663649018897e-4	NA	44
XXX_Ssa_1342	0.05618665523665186	0.37925992284740007	19.416024294092665	0.437_144.975	0.0013774104683195593	7.093393390730709e-5	1	8
XXX_Ssa_1343	NA	NA	NA	"NA"	NA	4.8767079561273617e-4	NA	55
XXX_Ssa_1345	1	1	0.841983434386046	0.101_3.074	0.0027548209366391185	0.003271827701474539	2	369
XXX_Ssa_1346	0.08602394558768525	0.4941801129505323	11.948447223883106	0.281_79.601	0.0013774104683195593	1.1526764259937401e-4	1	13
XXX_Ssa_1349	NA	NA	NA	"NA"	NA	5.3200450430480314e-5	NA	6
XXX_Ssa_1353	NA	NA	NA	"NA"	NA	1.5073460955302754e-4	NA	17
XXX_Ssa_1355	NA	NA	NA	"NA"	NA	5.586047295200433e-4	NA	63
XXX_Ssa_1356	NA	NA	NA	"NA"	NA	2.6600225215240154e-4	NA	30
XXX_Ssa_1360	NA	NA	NA	"NA"	NA	0.0012945442938083543	NA	146
XXX_Ssa_1367	0.17745226549088744	0.5701593062247974	2.6554075483411586	0.317_9.845	0.0027548209366391185	0.0010374087833943662	2	117
XXX_Ssa_1373	0.15944024849730587	0.5699024167597274	0.47649985201029166	0.129_1.228	0.005509641873278237	0.011562231226891054	4	1304
XXX_Ssa_1376	NA	NA	NA	"NA"	NA	0.0022610191432954133	NA	255
XXX_Ssa_1377	0.06823687021570005	0.43866559424378604	15.533657952275586	0.357_109.511	0.0013774104683195593	8.866741738413386e-5	1	10
XXX_Ssa_1379	0.051617449848748484	0.37917886539746226	1.6558966829027435	0.939_2.717	0.02203856749311295	0.013308979349358492	16	1501
XXX_Ssa_1380	0.3180737998534519	0.6542158641026106	1.7553047025550435	0.211_6.458	0.0027548209366391185	0.0015694132876991691	2	177
XXX_Ssa_1381	0.028846442955012486	0.29845213283593014	0.42232854644133466	0.154_0.925	0.008264462809917356	0.01956889901667834	6	2207
XXX_Ssa_1382	1	1	0.7327645703167648	0.088_2.673	0.0027548209366391185	0.0037594984970872754	2	424
XXX_Ssa_1384	NA	NA	NA	"NA"	NA	3.014692191060551e-4	NA	34
XXX_Ssa_1385	NA	NA	NA	"NA"	NA	0.0011438096842553266	NA	129
XXX_Ssa_1386	0.9999999999999999	1	0.7522811772319252	0.091_2.745	0.0027548209366391185	0.003661964337964728	2	413
XXX_Ssa_1387	0.5547671054933848	0.7996289110661543	1.242760530804389	0.031_7.074	0.0013774104683195593	0.0011083427173016731	1	125
XXX_Ssa_1388	0.09931936293295639	0.5313227358554838	0.21427741437394213	0.005_1.201	0.0013774104683195593	0.006428387760349704	1	725
XXX_Ssa_1390	0.6158660755509102	0.8272827880534616	1.0496611421768802	0.026_5.958	0.0013774104683195593	0.001312277777285181	1	148
XXX_Ssa_1391	NA	NA	NA	"NA"	NA	2.0393505998350786e-4	NA	23
XXX_Ssa_1395	0.7147388007249915	0.904294873016042	0.7767300568015967	0.284_1.704	0.008264462809917356	0.010640090086096062	6	1200
XXX_Ssa_1396	NA	NA	NA	"NA"	NA	0.0034668960197196336	NA	391
XXX_Ssa_1397	0.10429668518644682	0.5313227358554838	0.200712176338756	0.005_1.125	0.0013774104683195593	0.00686285810553196	1	774
XXX_Ssa_1399	0.28674802531387095	0.6232981566714632	0.6192613525935396	0.248_1.285	0.009641873278236915	0.015569998492653904	7	1756
XXX_Ssa_1403	5.943785606296636e-14	1.604822113700092e-11	0.07152013336344532	0.015_0.21	0.004132231404958678	0.05779342265097844	3	6518
XXX_Ssa_1409	0.5660520055028212	0.7996289110661543	1.204225916623088	0.03_6.851	0.0013774104683195593	0.0011438096842553266	1	129
XXX_Ssa_1415	NA	NA	NA	"NA"	NA	0.0015073460955302754	NA	170
XXX_Ssa_1418	0.08065429779617388	0.48392578677704323	0.48319264017803154	0.176_1.059	0.008264462809917356	0.01710394481339942	6	1929
XXX_Ssa_1419	0.2653051168081919	0.6142830779224991	0.5329204255582122	0.145_1.374	0.005509641873278237	0.010338620866990007	4	1166
XXX_Ssa_1420	0.3285189932520764	0.6619412550601539	2.546611853057115	0.063_14.779	0.0013774104683195593	5.408712460432165e-4	1	61
XXX_Ssa_1421	0.6944382878755014	0.904294873016042	0.7533755867499323	0.243_1.772	0.006887052341597796	0.0091416107323042	5	1031
XXX_Ssa_1422	NA	NA	NA	"NA"	NA	0.0013388780025004213	NA	151
XXX_Ssa_1423	NA	NA	NA	"NA"	NA	0.0011083427173016731	NA	125
XXX_Ssa_1426	0.15263922546561765	0.5699024167597274	2.9309325349765794	0.35_10.89	0.0027548209366391185	9.398746242718189e-4	2	106
XXX_Ssa_1427	NA	NA	NA	"NA"	NA	0.002021617116358252	NA	228
XXX_Ssa_1428	NA	NA	NA	"NA"	NA	0.001081742492086433	NA	122
XXX_Ssa_1429	0.07056686793382962	0.443094287026372	0.19615058102201258	0.005_1.099	0.0013774104683195593	0.007022459456823401	1	792
XXX_Ssa_1430	0.5285073155604614	0.7842292516304179	0.388375560306629	0.01_2.183	0.0013774104683195593	0.003546696695365354	1	400
XXX_Ssa_1431	0.6594089143100088	0.8642738197267106	1.3808184584437422	0.166_5.064	0.0027548209366391185	0.001995016891143012	2	225
XXX_Ssa_1432	NA	NA	NA	"NA"	NA	7.35939564288311e-4	NA	83
XXX_Ssa_1434	0.1592549231198345	0.5699024167597274	5.9744608443048115	0.146_36.433	0.0013774104683195593	2.3053528519874803e-4	1	26
XXX_Ssa_1436	0.3979618031103491	0.6932237860631888	1.99162876704471	0.05_11.466	0.0013774104683195593	6.91605855596244e-4	1	78
XXX_Ssa_1437	0.6007873060026246	0.8192554172763062	1.0939824359574608	0.027_6.214	0.0013774104683195593	0.0012590773268547008	1	142
XXX_Ssa_1439	0.9999999999999999	1	0.7925816914513231	0.02_4.482	0.0013774104683195593	0.0017378813807290235	1	196
XXX_Ssa_1446	0.11888159578830554	0.5631233484709209	1.71335626840768	0.778_3.287	0.012396694214876033	0.007235261258545322	9	816
XXX_Ssa_1448	1	1	0.9894633402703931	0.025_5.611	0.0013774104683195593	0.0013920784529309015	1	157
XXX_Ssa_1449	NA	NA	NA	"NA"	NA	5.05404279089563e-4	NA	57
XXX_Ssa_1451	0.48393448244791637	0.7596645945403337	1.5229523985533604	0.038_8.703	0.0013774104683195593	9.044076573181653e-4	1	102
XXX_Ssa_1455	NA	NA	NA	"NA"	NA	9.221411407949921e-4	NA	104
XXX_Ssa_1456	0.7930366723061416	0.9516440067673699	1.06398484178475	0.288_2.751	0.005509641873278237	0.005178177175233417	4	584
XXX_Ssa_1458	NA	NA	NA	"NA"	NA	1.8620157650668109e-4	NA	21
XXX_Ssa_1461	NA	NA	NA	"NA"	NA	0.0013300112607620078	NA	150
XXX_Ssa_1462	1	1	0.8678542446096631	0.022_4.913	0.0013774104683195593	0.0015871467711759959	1	179
XXX_Ssa_1464	NA	NA	NA	"NA"	NA	8.866741738413386e-5	NA	10
XXX_Ssa_1465	NA	NA	NA	"NA"	NA	8.246069816724448e-4	NA	93
XXX_Ssa_1467	NA	NA	NA	"NA"	NA	3.8126989475177554e-4	NA	43
XXX_Ssa_1470	0.1858296998066006	0.5701593062247974	5.011274667983771	0.123_30.131	0.0013774104683195593	2.748689938908149e-4	1	31
XXX_Ssa_1482	0.1805829015205972	0.5701593062247974	5.178780948678941	0.127_31.22	0.0013774104683195593	2.6600225215240154e-4	1	30
XXX_Ssa_1492	0.274723375206631	0.6142830779224991	3.1702096725735727	0.079_18.565	0.0013774104683195593	4.344703451822559e-4	1	49
XXX_Ssa_1495	NA	NA	NA	"NA"	NA	1.0640090086096063e-4	NA	12
XXX_Ssa_1505	5.228687185704325e-8	4.705818467133892e-6	11.338059143330224	5.296_21.609	0.013774104683195593	0.0012147436181626338	10	137
XXX_Ssa_1507	0.38063127138091235	0.6851362884856422	0.33698582173924024	0.009_1.893	0.0013774104683195593	0.00408756794140857	1	461
XXX_Ssa_1510	0.012768591828502648	0.20585025727990772	155.34944817064385	1.976_10764.347	0.0013774104683195593	8.866741738413386e-6	1	1
XXX_Ssa_1515	NA	NA	NA	"NA"	NA	2.748689938908149e-4	NA	31
XXX_Ssa_1523	0.4317653898024738	0.715194203967288	1.7855333785067238	0.045_10.243	0.0013774104683195593	7.714065312419646e-4	1	87
XXX_Ssa_1524	NA	NA	NA	"NA"	NA	3.9900337822860234e-4	NA	45
XXX_Ssa_1534	0.3743145381492135	0.6851362884856422	2.1576217072880453	0.054_12.45	0.0013774104683195593	6.384054051657638e-4	1	72
XXX_Ssa_1540	0.21661152711895323	0.5789214501049329	4.1984200376290195	0.103_24.966	0.0013774104683195593	3.2806944432129526e-4	1	37
XXX_Ssa_1544	NA	NA	NA	"NA"	NA	2.8373573562922834e-4	NA	32
XXX_Ssa_1554	NA	NA	NA	"NA"	NA	2.3053528519874803e-4	NA	26
XXX_Ssa_1561	NA	NA	NA	"NA"	NA	1.8620157650668109e-4	NA	21
XXX_Ssa_1563	NA	NA	NA	"NA"	NA	3.1033596084446846e-4	NA	35
XXX_Ssa_1567	NA	NA	NA	"NA"	NA	1.9506831824509449e-4	NA	22
XXX_Ssa_1575	NA	NA	NA	"NA"	NA	0.0014452789033613817	NA	163
XXX_Ssa_1594	NA	NA	NA	"NA"	NA	7.625397895035511e-4	NA	86
XXX_Ssa_1597	NA	NA	NA	"NA"	NA	7.980067564572047e-5	NA	9
XXX_Ssa_1600	1	1	0.6527151244199627	0.016_3.683	0.0013774104683195593	0.002110284533742386	1	238
XXX_Ssa_1621	NA	NA	NA	"NA"	NA	2.3053528519874803e-4	NA	26
XXX_Ssa_1626	0.1805829015205972	0.5701593062247974	5.178780948678941	0.127_31.22	0.0013774104683195593	2.6600225215240154e-4	1	30
XXX_Ssa_1631	0.6580460821765636	0.8642738197267106	1.393200604033979	0.167_5.11	0.0027548209366391185	0.001977283407666185	2	223
XXX_Ssa_1638	NA	NA	NA	"NA"	NA	2.6600225215240157e-5	NA	3
XXX_Ssa_1647	0.1751704980943388	0.5701593062247974	2.678283727405432	0.32_9.933	0.0027548209366391185	0.0010285420416559527	2	116
XXX_Ssa_1657	0.15709990900734971	0.5699024167597274	2.876661798790093	0.343_10.683	0.0027548209366391185	9.576081077486456e-4	2	108
XXX_Ssa_1662	NA	NA	NA	"NA"	NA	8.068734981956181e-4	NA	91
XXX_Ssa_1676	NA	NA	NA	"NA"	NA	3.192027025828819e-4	NA	36
XXX_Ssa_1681	NA	NA	NA	"NA"	NA	4.344703451822559e-4	NA	49
XXX_Ssa_1682	0.4602141723772399	0.7472819535985218	1.6351939553459014	0.041_9.362	0.0013774104683195593	8.423404651492715e-4	1	95
XXX_Ssa_1684	0.13233746842763486	0.5699024167597274	2.4147192900692334	0.492_7.191	0.004132231404958678	0.0017112811555137833	3	193
XXX_Ssa_1699	1	1	0.8570809407462862	0.232_2.213	0.005509641873278237	0.006428387760349704	4	725
XXX_Ssa_1707	0.5372863430069205	0.7842292516304179	1.305420220958656	0.033_7.437	0.0013774104683195593	0.001055142266871193	1	119
XXX_Ssa_1712	NA	NA	NA	"NA"	NA	0.0023230863354643068	NA	262
XXX_Ssa_1751	0.5904069107827086	0.8133156424047516	1.1256912456149328	0.028_6.398	0.0013774104683195593	0.001223610359901047	1	138
XXX_Ssa_1776	NA	NA	NA	"NA"	NA	1.0640090086096063e-4	NA	12
XXX_Ssa_1778	0.6083993607551161	0.8234644087082915	1.071331101732031	0.027_6.083	0.0013774104683195593	0.0012856775520699408	1	145
XXX_Ssa_1781	0.22351044191483743	0.582713891873181	1.7260484058107182	0.556_4.077	0.006887052341597796	0.003990033782286024	5	450
XXX_Ssa_1782	1	1	0.6472758621050758	0.016_3.652	0.0013774104683195593	0.0021280180172192124	1	240
XXX_Ssa_1784	NA	NA	NA	"NA"	NA	5.408712460432165e-4	NA	61
XXX_Ssa_1786	0.1483833646532294	0.5699024167597274	6.4723481396018245	0.157_39.807	0.0013774104683195593	2.1280180172192126e-4	1	24
XXX_Ssa_1789	1	1	0.526597858799124	0.013_2.966	0.0013774104683195593	0.0026156888128319486	1	295
XXX_Ssa_1790	NA	NA	NA	"NA"	NA	5.852049547352834e-4	NA	66
XXX_Ssa_1791	0.1373710316956609	0.5699024167597274	7.062210930568413	0.171_43.799	0.0013774104683195593	1.9506831824509449e-4	1	22
XXX_Ssa_1804	NA	NA	NA	"NA"	NA	0.001684680930298543	NA	190
XXX_Ssa_1806	0.126216098838946	0.5699024167597274	7.766947372984176	0.187_48.707	0.0013774104683195593	1.7733483476826771e-4	1	20
XXX_Ssa_1808	NA	NA	NA	"NA"	NA	9.753415912254724e-5	NA	11
XXX_Ssa_1821	0.13181150526500515	0.5699024167597274	7.3975629807015535	0.179_46.097	0.0013774104683195593	1.8620157650668109e-4	1	21
XXX_Ssa_1823	0.13181150526500515	0.5699024167597274	7.3975629807015535	0.179_46.097	0.0013774104683195593	1.8620157650668109e-4	1	21
XXX_Ssa_1832	NA	NA	NA	"NA"	NA	1.5960135129144094e-4	NA	18
XXX_Ssa_1833	4.594173013072735e-6	1.7720381621851976e-4	15.533642345873263	5.466_35.999	0.008264462809917356	5.320045043048031e-4	6	60
XXX_Ssa_1836	0.4705108596731434	0.7472819535985218	1.585128019277285	0.04_9.068	0.0013774104683195593	8.689406903645118e-4	1	98
XXX_Ssa_1839	0.4317653898024738	0.715194203967288	1.7855333785067238	0.045_10.243	0.0013774104683195593	7.714065312419646e-4	1	87
XXX_Ssa_1847	NA	NA	NA	"NA"	NA	1.8620157650668109e-4	NA	21
XXX_Ssa_1848	0.453632647470349	0.7423079685878439	0.47654043674433694	0.057_1.735	0.0027548209366391185	0.005781115613445527	2	652
XXX_Ssa_1849	NA	NA	NA	"NA"	NA	4.344703451822559e-4	NA	49
XXX_Ssa_1850	0.4132273530703878	0.7017068259685831	1.8944611253121604	0.047_10.884	0.0013774104683195593	7.270728225498976e-4	1	82
XXX_Ssa_1852	1	1	0.9609017512700999	0.197_2.836	0.004132231404958678	0.004300369743130492	3	485
XXX_Ssa_1856	0.09646006950733897	0.5313227358554838	1.7932377892911786	0.768_3.572	0.011019283746556474	0.006144652024720476	8	693
XXX_Ssa_1874	0.05010315151161705	0.37917886539746226	22.186817894803678	0.492_173.28	0.0013774104683195593	6.20671921688937e-5	1	7
XXX_Ssa_1876	NA	NA	NA	"NA"	NA	6.206719216889369e-4	NA	70
XXX_Ssa_1878	NA	NA	NA	"NA"	NA	6.827391138578306e-4	NA	77
XXX_Ssa_1893	1	1	0.6340662229037106	0.016_3.577	0.0013774104683195593	0.0021723517259112793	1	245
XXX_Ssa_1925	0.02504722179182262	0.2740383935585193	3.7208878226478057	0.999_9.747	0.005509641873278237	0.0014807458703150354	4	167
XXX_Ssa_1959	9.020922269542509e-4	0.022142263752513432	3.4751296721619993	1.648_6.489	0.013774104683195593	0.003963433557070783	10	447
XXX_Ssa_1964	NA	NA	NA	"NA"	NA	3.3693618605970863e-4	NA	38
XXX_Ssa_1967	NA	NA	NA	"NA"	NA	6.295386634273504e-4	NA	71
XXX_Ssa_1968	NA	NA	NA	"NA"	NA	8.866741738413386e-5	NA	10
XXX_Ssa_1971	0.20282089258165928	0.5764383262847158	2.4272457534290264	0.29_8.978	0.0027548209366391185	0.0011349429425169134	2	128
XXX_Ssa_1972	0.17289345871425377	0.5701593062247974	2.7015562791698815	0.323_10.021	0.0027548209366391185	0.0010196752999175392	2	115
XXX_Ssa_1973	0.9999999999999999	1	0.7690398181337581	0.019_4.347	0.0013774104683195593	0.0017910818311595038	1	202
XXX_Ssa_1976	1	1	0.8512105651782687	0.231_2.198	0.005509641873278237	0.006472721469041771	4	730
XXX_Ssa_1977	0.23648257940429104	0.6023612871618734	3.7888862777234147	0.094_22.379	0.0013774104683195593	3.635364112749488e-4	1	41
XXX_Ssa_1980	0.007192266640698961	0.13870799949919424	8.034661200211797	1.607_24.768	0.004132231404958678	5.142710208279763e-4	3	58
XXX_Ssa_1982	0.013898996629494327	0.2084849494424149	11.948450198285524	1.372_47.89	0.0027548209366391185	2.3053528519874803e-4	2	26
XXX_Ssa_1983	0.20136910757195917	0.5764383262847158	4.568624493908569	0.112_27.334	0.0013774104683195593	3.014692191060551e-4	1	34
XXX_Ssa_1984	0.1122780247977527	0.5511830308253315	0.4848413687875153	0.157_1.139	0.006887052341597796	0.014204520264938243	5	1602
XXX_Ssa_1985	1	1	0.8049015279823021	0.02_4.552	0.0013774104683195593	0.0017112811555137833	1	193
XXX_Ssa_1989	0.5252523103767928	0.7842292516304179	1.3508260523009061	0.034_7.701	0.0013774104683195593	0.0010196752999175392	1	115
XXX_Ssa_1990	NA	NA	NA	"NA"	NA	0.0026866227467392556	NA	303
XXX_Ssa_1992	0.3940836740365599	0.6909259220121505	2.0174495592893558	0.05_11.619	0.0013774104683195593	6.827391138578306e-4	1	77
XXX_Ssa_1995	NA	NA	NA	"NA"	NA	4.078701199670157e-4	NA	46
XXX_Ssa_2003	3.757699852347989e-7	1.690964933556595e-5	13.216031402345791	5.525_27.274	0.011019283746556474	8.334737234108582e-4	8	94
XXX_Ssa_2004	0.029845213283593016	0.29845213283593014	7.766947255443988	0.908_30.048	0.0027548209366391185	3.5466966953653543e-4	2	40
XXX_Ssa_2005	7.662335670110802e-4	0.020688306309299166	18.63774819838092	3.594_61.349	0.004132231404958678	2.2166854346033463e-4	3	25
